Replication of Study: Transient Spatial Attention Degrades Temporal Resolution by Yeshurun & Levy (2003, Psychological Science)
…
## # A tibble: 4 x 3
## # Groups:   numFlash [2]
##   numFlash sub   AvgAccuracy
##      <dbl> <chr>       <dbl>
## 1        1 att         0.984
## 2        1 kis         0.935
## 3        2 att         0.560
## 4        2 kis         0.829

dp <- d %>% group_by(sub,cue,targetLoc,ISI) %>% summarize(nHit = sum(SDT == 'HI' ), nFA = sum(SDT == 'FA' ), nMiss = sum(SDT == 'MI' ), nCR = sum(SDT == 'CR' ), dPrime= dprime(nHit, nFA, nMiss, nCR)$dprime, criterion=dprime(nHit, nFA, nMiss, nCR)$c) #
dp

## # A tibble: 60 x 10
## # Groups:   sub, cue, targetLoc [20]
##    sub   cue   targetLoc ISI    nHit   nFA nMiss   nCR dPrime criterion
##    <chr> <fct> <fct>     <fct> <int> <int> <int> <int>  <dbl>     <dbl>
##  1 att   cued  0         11        0     1    12    11 -0.566     1.50 
##  2 att   cued  0         23        2     0    10    12  0.890     1.34 
##  3 att   cued  0         35        8     0     4    12  2.12      0.728
##  4 att   cued  3         11        0     0    12    12  0         1.79 
##  5 att   cued  3         23        2     0    10    12  0.890     1.34 
##  6 att   cued  3         35       10     0     2    12  2.55      0.511
##  7 att   cued  9         11        3     0     9    12  1.14      1.22 
##  8 att   cued  9         23        8     0     4    12  2.12      0.728
##  9 att   cued  9         35       11     0     1    12  2.83      0.371
## 10 att   cued  13        11        4     0     8    12  1.36      1.11 
## #  with 50 more rows
…
