Replication of Study: Transient Spatial Attention Degrades Temporal Resolution by Yeshurun & Levy (2003, Psychological Science)
…
dp <- d %>% group_by(sub,cue,targetLoc,ISI) %>% summarize(nHit = sum(SDT == 'HI' ), nFA = sum(SDT == 'FA' ), nMiss = sum(SDT == 'MI' ), nCR = sum(SDT == 'CR' ), dPrime= dprime(nHit, nFA, nMiss, nCR)$dprime, criterion=dprime(nHit, nFA, nMiss, nCR)$c) 

#### Make sub-selection of the data for plotting 

dplot_cue <- dp %>% group_by(sub,cue) %>% summarize(dPrime = mean(dPrime))
dplot_ecc <- dp %>% group_by(cue,targetLoc) %>% summarize(dPrime = mean(dPrime))
dplot_ecc2 <- dp %>% group_by(targetLoc,ISI) %>% summarize(dPrime = mean(dPrime))
dplot_ISI <- dp %>% group_by(cue,ISI) %>% summarize(dPrime = mean(dPrime))
dplot_stat_ISI <- dp %>% group_by(sub,cue,ISI) %>% summarize(dPrime = mean(dPrime))

dplot_ecc_sd <- dp %>% group_by(sub,targetLoc,ISI) %>% summarize(dPrime = mean(dPrime))
filter(dplot_ecc_sd)

## # A tibble: 180 x 4
## # Groups:   sub, targetLoc [60]
##    sub   targetLoc ISI   dPrime
##    <chr> <fct>     <fct>  <dbl>
##  1 s001  0         11     1.74 
##  2 s001  0         23     2.33 
##  3 s001  0         35     2.75 
##  4 s001  3         11     1.25 
##  5 s001  3         23     2.41 
##  6 s001  3         35     3.03 
##  7 s001  6         11     0.601
##  8 s001  6         23     2.75 
##  9 s001  6         35     3.23 
## 10 s001  9         11     1.94 
## #  with 170 more rows
…
